Week 1: Review of Data Wrangling
…
Question 1: Consider the following code. What does it do, and why might it be an important step before reshaping the data?

us_arrests <- us_arrests %>%
  rownames_to_column(var = "State")

Question 2: Fill in the four (4) blanks for the code that will produce the following:

us_arrests %>%
  rownames_to_column(var = "State") %>% 
  pivot_XXXX(cols = ____,
             ____ = "Crime",
             ____ = "Rate")

# A tibble: 100 × 4
   State      UrbanPop Crime    Rate
   <chr>         <int> <chr>   <dbl>
 1 Alabama          58 Murder   13.2
 2 Alabama          58 Assault 236  
 3 Alaska           48 Murder   10  
 4 Alaska           48 Assault 263  
 5 Arizona          80 Murder    8.1
 6 Arizona          80 Assault 294  
 7 Arkansas         50 Murder    8.8
 8 Arkansas         50 Assault 190  
 9 California       91 Murder    9  
10 California       91 Assault 276  
# ℹ 90 more rows
